/* XPM */
// static const char * globe_frame_xpm[] = {


static const char *globe_xpm[] = {
"16 16 3 1",
"   c None",
"!  c black",
"#  c #111111",
"     #####     ",
"   ## ### ##    ",
"  #  # # #  #   ",
" #  #  #  #  #  ",
" #############  ",
"#  #   #   #  # ",
"#  #   #   #  # ",
"############### ",
"#  #   #   #  # ",
"#  #   #   #  # ",
" #############  ",
" #  #  #  #  #  ",
"  #  # # #  #   ",
"   ## ### ##    ",
"     #####      ",
"                "};


static const char *globe_xpm_32x32[] = {
"32 32 3 1",
"   c None",
"!  c black",
"#  c #111111",
"              ####              ",
"          #### ## ####          ",
"        ##    # ##    ##        ",
"       #     #  # #     #       ",
"     ##     #   #  #     ##     ",
"    #      #    #   #      #    ",
"    #     #     #   #      #    ",
"   #      #     #    #      #   ",
"  ############################  ",
"  #      #      #     #      #  ",
" #      #       #      #      # ",
" #      #       #       #     # ",
" #     #        #       #     # ",
"#      #        #       #      #",
"#      #        #       #      #",
"#      #        #        #     #",
"################################",
"#      #        #       #      #",
"#      #        #       #      #",
" #     #        #       #     # ",
" #      #       #      #      # ",
" #      #       #      #      # ",
"  #      #      #      #     #  ",
"  #      #      #     #      #  ",
"   ##########################   ",
"    #     #     #    #     #    ",
"    #      #    #   #      #    ",
"     ##     #   #   #    ##     ",
"       #     #  #  #    #       ",
"        ##    # # #   ##        ",
"          #### #######          ",
"              ####              "};
