



static const char *shade_xpm[] = {
"32 32 5 1",
"   c None",
"!  c black",
"#  c #00FFFF",
"$  c #808000",
".  c #000000",
"                                ",
"                                ",
"                                ",
"            ########            ",
"          ############          ",
"        $$$$$$##########        ",
"       ##$$$$####$$$$####       ",
"      $$$#$$$#$$#$$$$$$$$$      ",
"     $$$$$#$$#$$$$$$$$$$$$$     ",
"    $$$$$$$$###$$$$$$$$$$$$     ",
"    $$$$$$$$###$$$$$$$$$$$$$    ",
"    $$$$$$$$#####$$$$$$$$$$$    ",
"   ##$$$$$$#######$####$$$$$$   ",
"   ##$$$$$#######$$$$$$$$$$##   ",
"   ##$$$$########$$$$$$$$$$##   ",
"   ##$$$#########$$$$$$$$$$$$   ",
"   ##$$$#########$$$$$$$$$$$$   ",
"   ###$$#########$$$$$$$$$$$$   ",
"   ####$$$$######$$$$$$$$$$$$   ",
"   ##$$$$$$$$#####$$$$$$$$$$$   ",
"    $$$$$$$$$########$$$$$$$    ",
"    $$$$$$$$$#########$$$$$$    ",
"     $$$$$$$$#########$$$$$     ",
"     $$$$$$$$#########$$$$$     ",
"      $$$$$$$##########$$$      ",
"       $$$$$###########$$       ",
"        $$$$############        ",
"         $$$#$$$$$####          ",
"          $$$$$$$$###           ",
"                                ",
"                                ",
"                                "};


/*


static const char *globe_xpm[] = {
"32 32 4 1",
"   c None",
"!  c black",
"#  c #C0C0C0",
"$  c #808080",
"                                ",
"                                ",
"                                ",
"            ########            ",
"          ############          ",
"        #$$$$$##########        ",
"       ##$$$$####$$$$####       ",
"      $$$#$$$#$$#$$$$$$$$$      ",
"     $$$$$#$$#$$$$$$$$$$$$$     ",
"    $$$$$$$$###$$$$$$$$$$$$     ",
"    $$$$$$$$###$$$$$$$$$$$$$    ",
"    $$$$$$$$#####$$$$$$$$$$$    ",
"   ##$$$$$$#######$####$$$$$$   ",
"   ##$$$$$#######$$$$$$$$$$##   ",
"   ##$$$$########$$$$$$$$$$##   ",
"   ##$$$#########$$$$$$$$$$$#   ",
"   ##$$$#########$$$$$$$$$$$$   ",
"   ###$$#########$$$$$$$$$$$$   ",
"   ####$$$$######$$$$$$$$$$$$   ",
"   ##$$$$$$$$#####$$$$$$$$$$$   ",
"    #$$$$$$$$########$$$$$$$    ",
"    #$$$$$$$$#########$$$$$$    ",
"     $$$$$$$$#########$$$$$     ",
"     #$$$$$$$#########$$$$$     ",
"      #$$$$$$##########$$$      ",
"       #$$$$###########$$       ",
"        #$$$############        ",
"         $$$#$$$$$####          ",
"          $$$$$$$$$$$           ",
"                                ",
"                                ",
"                                "};

*/
